14105112670355151 0.0000140000 0.0000000000
14105112700387074 0.0000060000 0.0000000000
14105112740826162 0.0000140000 0.0000000000
14105112800321808 0.0000050000 0.0000000000
14105112780406227 0.0004270000 0.0000000000
14105112830366554 0.0000140000 0.0000000000
14105113010029477 0.0000060000 0.0000000000
14105112990441944 0.0004370000 0.0000000000
14105113050076705 0.0002710000 0.0000070000
14105113050076705 0.0000000000 0.0000000000
14105113080630030 0.0000050000 0.0000000000
14105113100779340 0.0000100000 0.0000000000
14105113130120828 0.0000060000 0.0000000000
14105113150367692 0.0000060000 0.0000000000
14105113190907623 0.0000090000 0.0000000000
14105113230944116 0.0005740000 0.0000110000
14105113230944116 0.0000000000 0.0000000000
14105113330523623 0.0000090000 0.0000000000
14105113360341554 0.0000210000 0.0000000000
14105113430024251 0.0004150000 0.0000070000
14105113430024251 0.0000000000 0.0000000000
14105113470130785 0.0004460000 0.0000000000
14105113520505868 0.0000170000 0.0000000000
14105113550002844 0.0000060000 0.0000000000
14105113570028196 0.0000070000 0.0000000000
14105113580047975 0.0013410000 0.0000160000
14105113610403143 0.0006030000 0.0000110000
14105113610403143 0.0000000000 0.0000000000
14105113600177643 0.0004130000 0.0000000000
14105113630897542 0.0004430000 0.0000000000
14105113720194537 0.0005300000 0.0000070000
14105113720194537 0.0000000000 0.0000000000
14105113740751194 0.0000080000 0.0000000000
14105113760445500 0.0009210000 0.0000050000
14105113760445500 0.0000000000 0.0000000000
14105113800987692 0.0000100000 0.0000000000
14105113850392757 0.0000070000 0.0000000000
14105113930013816 0.0006900000 0.0000080000
14105113930013816 0.0000000000 0.0000000000
14105114010205916 0.0006230000 0.0000080000
14105114010205916 0.0000000000 0.0000000000
14105114030603398 0.0000060000 0.0000000000
14105114110627976 0.0008290000 0.0000070000
14105114110627976 0.0000000000 0.0000000000
14105114120310372 0.0004880000 0.0000000000
14105114170188815 0.0006960000 0.0000060000
14105114170188815 0.0000000000 0.0000000000
14105114160674041 0.0003910000 0.0000000000
14105114220332195 0.0007890000 0.0000060000
14105114220332195 0.0000000000 0.0000000000
14105114250515906 0.0000080000 0.0000000000
14105114270509894 0.0000090000 0.0000000000
14105114280528059 0.0004140000 0.0000000000
14105114360518148 0.0000150000 0.0000000000
14105114380915575 0.0009740000 0.0000050000
14105114380915575 0.0000000000 0.0000000000
14105114410098091 0.0000060000 0.0000000000
14105114390984382 0.0006530000 0.0000000000
14105114410948315 0.0004770000 0.0000000000
14105114450683541 0.0012290000 0.0000160000
14105114450683541 0.0000000000 0.0000000000
14105114440349420 0.0004490000 0.0000000000
14105114480243396 0.0011740000 0.0000150000
14105114480243396 0.0000000000 0.0000000000
14105114520905177 0.0009710000 0.0000080000
14105114530418307 0.0009790000 0.0000110000
14105114530418307 0.0000000000 0.0000000000
14105114540186280 0.0005090000 0.0000000000
14105114580490009 0.0000140000 0.0000000000
14105114600983166 0.0000080000 0.0000000000
14105114630020343 0.0000060000 0.0000000000
14105114640652984 0.0000110000 0.0000000000
14105114670349685 0.0000080000 0.0000000000
14105114720120038 0.0005200000 0.0000000000
14105114790793494 0.0009690000 0.0000050000
14105114790793494 0.0000000000 0.0000000000
14105114800195376 0.0004300000 0.0000000000
14105114900630149 0.0000090000 0.0000000000
14105114890626997 0.0006140000 0.0000000000
14105114950705009 0.0000090000 0.0000000000
14105115010425440 0.0000130000 0.0000000000
14105115040741206 0.0000090000 0.0000000000
14105115040479897 0.0004040000 0.0000000000
14105115080988607 0.0000100000 0.0000000000
14105115070486456 0.0006040000 0.0000000000
14105115180805259 0.0000070000 0.0000000000
14105115160772189 0.0005280000 0.0000000000
14105115220842848 0.0000080000 0.0000000000
14105115260519433 0.0019499999 0.0000230000
14105115260519433 0.0000000000 0.0000000000
14105115310733995 0.0000100000 0.0000000000
14105115310027020 0.0005260000 0.0000000000
14105115390249306 0.0025770001 0.0000160000
14105115390249306 0.0000000000 0.0000000000
14105115380494869 0.0005880000 0.0000000000
14105115430028960 0.0000080000 0.0000000000
14105115410662173 0.0005720000 0.0000000000
14105115470693448 0.0017140000 0.0000130000
14105115470693448 0.0000000000 0.0000000000
14105115580752940 0.0000160000 0.0000000000
14105116480955047 0.0000120000 0.0000000000
14105116890983389 0.0004750000 0.0000000000
14105116940262495 0.0016210000 0.0000120000
14105116940262495 0.0000000000 0.0000000000
14105116980433123 0.0003970000 0.0000000000
14105117000661889 0.0005030000 0.0000000000
14105117040899401 0.0013400000 0.0000120000
14105117110293946 0.0000000000 0.0000000000
14105117190198838 0.0017840000 0.0001440000
14105117230619071 0.0007040000 0.0000000000
14105117310640778 0.0000080000 0.0000000000
14105117350606344 0.0000070000 0.0000000000
14105117350733103 0.0003590000 0.0000000000
14105117420513591 0.0000070000 0.0000000000
14105117600504785 0.0000130000 0.0000000000
14105117730293524 0.0007170000 0.0000000000
14105117790145964 0.0014100000 0.0000090000
14105117790145964 0.0000000000 0.0000000000
14105117810410529 0.0003830000 0.0000000000
14105117880258267 0.0014759999 0.0000100000
14105117880258267 0.0000000000 0.0000000000
14105117900343801 0.0004150000 0.0000000000
14105117940462393 0.0000070000 0.0000000000
14105117990518541 0.0022730001 0.0000140000
14105117990518541 0.0000000000 0.0000000000
14105118030998614 0.0023580000 0.0000320000
14105118040525225 0.0023580000 0.0000140000
14105118040525225 0.0000000000 0.0000000000
14105118050946115 0.0003830000 0.0000000000
14105118170663535 0.0000050000 0.0000000000
14105118150695128 0.0004100000 0.0000000000
14105118260695221 0.0000070000 0.0000000000
14105118360505119 0.0000090000 0.0000000000
14105118550168859 0.0000070000 0.0000000000
14105118610487247 0.0003780000 0.0000000000
14105118660195004 0.0000090000 0.0000000000
14105118850231334 0.0021530001 0.0000140000
14105118850231334 0.0000000000 0.0000000000
14105119010648014 0.0016670000 0.0000110000
14105119010648014 0.0000000000 0.0000000000
14105119070394367 0.0004540000 0.0000000000
14105119150436563 0.0020560001 0.0000100000
14105119150436563 0.0000000000 0.0000000000
14105119150092154 0.0003740000 0.0000000000
14105119170126662 0.0003770000 0.0000000000
14105119220057980 0.0016650000 0.0000100000
14105119220057980 0.0000000000 0.0000000000
14105119280055268 0.0000110000 0.0000000000
14105119320812439 0.0000080000 0.0000000000
14105119350460138 0.0000090000 0.0000000000
14105119490800486 0.0000100000 0.0000000000
14105119500583964 0.0006340000 0.0000000000
14105119550163489 0.0003900000 0.0000000000
14105119580426483 0.0017400000 0.0000080000
14105119580426483 0.0000000000 0.0000000000
14105119640492250 0.0000110000 0.0000000000
14105119680327814 0.0000090000 0.0000000000
14105119690901502 0.0005770000 0.0000000000
14105119780444259 0.0018119999 0.0000110000
14105119780444259 0.0000000000 0.0000000000
14105119850028354 0.0018269999 0.0000150000
14105119870131338 0.0000000000 0.0000000000
14105119910770603 0.0003620000 0.0000000000
14105119940592303 0.0004210000 0.0000000000
14105120050012599 0.0004000000 0.0000000000
14105120140081055 0.0000150000 0.0000000000
14105120170546720 0.0000090000 0.0000000000
14105120200244085 0.0000070000 0.0000000000
14105120180203956 0.0003760000 0.0000000000
14105120230576184 0.0003750000 0.0000000000
14105120270365820 0.0004150000 0.0000000000
14105120310740044 0.0000120000 0.0000000000
14105120320996465 0.0004060000 0.0000000000
14105120380317424 0.0019060000 0.0000060000
14105120380317424 0.0000000000 0.0000000000
14105120390793791 0.0003750000 0.0000000000
14105120430435318 0.0000100000 0.0000000000
14105120430653643 0.0004420000 0.0000000000
14105120550572727 0.0022370000 0.0000110000
14105120550572727 0.0000000000 0.0000000000
14105120600234517 0.0000150000 0.0000000000
14105120590795022 0.0003920000 0.0000000000
14105120660971098 0.0000190000 0.0000000000
14105120650437545 0.0003890000 0.0000000000
14105120720508048 0.0020750000 0.0000080000
14105120720508048 0.0000000000 0.0000000000
14105120710623821 0.0004260000 0.0000000000
14105120760534120 0.0000080000 0.0000000000
14105120880640947 0.0021130000 0.0000060000
14105120880640947 0.0000000000 0.0000000000
14105120900472361 0.0003930000 0.0000000000
14105120950862534 0.0004260000 0.0000000000
14105121010691529 0.0021730000 0.0000060000
14105121010691529 0.0000000000 0.0000000000
14105121020056833 0.0003860000 0.0000000000
14105121070825088 0.0028899999 0.0000110000
14105121070825088 0.0000000000 0.0000000000
14105121070908014 0.0004250000 0.0000000000
14105121140958598 0.0024079999 0.0000120000
14105121140958598 0.0000000000 0.0000000000
14105121140183785 0.0003950000 0.0000000000
14105121180214379 0.0000090000 0.0000000000
14105121200240851 0.0026750001 0.0000090000
14105121200240851 0.0000000000 0.0000000000
14105121220371745 0.0000130000 0.0000000000
14105121350312682 0.0004090000 0.0000000000
14105121400539975 0.0023990001 0.0000100000
14105121400539975 0.0000000000 0.0000000000
14105121440801915 0.0000150000 0.0000000000
14105121530094647 0.0000190000 0.0000000000
14105121530640247 0.0024009999 0.0000090000
14105121550338297 0.0000000000 0.0000000000
14105121620451715 0.0025289999 0.0000130000
14105121620451715 0.0000000000 0.0000000000
14105121620818292 0.0003560000 0.0000000000
14105121670610973 0.0023830000 0.0000140000
14105121670610973 0.0000000000 0.0000000000
14105121670252236 0.0004260000 0.0000000000
14105121730758942 0.0024639999 0.0000100000
14105121730758942 0.0000000000 0.0000000000
14105121780116451 0.0003280000 0.0000000000
14105122020009438 0.0000140000 0.0000000000
14105122050403587 0.0004210000 0.0000000000
14105122110519435 0.0004060000 0.0000000000
14105122140125131 0.0004050000 0.0000000000
14105122190241037 0.0024240001 0.0000060000
14105122190241037 0.0000000000 0.0000000000
14105122190856150 0.0003640000 0.0000000000
14105122260392410 0.0024730000 0.0000130000
14105122260392410 0.0000000000 0.0000000000
14105122370073782 0.0000090000 0.0000000000
14105122390131820 0.0000100000 0.0000000000
14105122600476909 0.0004060000 0.0000000000
14105122730891756 0.0000110000 0.0000000000
14105122760289583 0.0000080000 0.0000000000
14105122780820621 0.0000080000 0.0000000000
14105122760885163 0.0005710000 0.0000000000
14105122820413717 0.0030420001 0.0000160000
14105122820413717 0.0000000000 0.0000000000
14105122910251512 0.0000090000 0.0000000000
14105122950380646 0.0028200001 0.0000150000
14105122950380646 0.0000000000 0.0000000000
14105122940572236 0.0003770000 0.0000000000
14105122990854716 0.0025810001 0.0000070000
14105122990854716 0.0000000000 0.0000000000
14105123010386323 0.0000100000 0.0000000000
14105123020944888 0.0000080000 0.0000000000
14105123040773610 0.0000120000 0.0000000000
14105123060520228 0.0004170000 0.0000000000
14105123130195172 0.0000100000 0.0000000000
14105123120193995 0.0004030000 0.0000000000
14105123170794045 0.0026630000 0.0000060000
14105123170794045 0.0000000000 0.0000000000
14105123170675889 0.0003970000 0.0000000000
14105123270801936 0.0000110000 0.0000000000
14105123290899223 0.0000140000 0.0000000000
14105123290899223 0.0000000000 0.0000000000
14105123350327874 0.0000090000 0.0000000000
14105123370407331 0.0000110000 0.0000000000
14105123410982318 0.0003980000 0.0000000000
14105123480048190 0.0028260001 0.0000130000
14105123510620633 0.0000000000 0.0000000000
14105123620760355 0.0031610001 0.0000060000
14105123620760355 0.0000000000 0.0000000000
14105123680277855 0.0003600000 0.0000000000
14105123730485988 0.0000090000 0.0000000000
14105123760048604 0.0000070000 0.0000000000
14105123810927436 0.0003860000 0.0000000000
14105123850208723 0.0000150000 0.0000000000
14105123870807259 0.0052760001 0.0000130000
14105123870807259 0.0000000000 0.0000000000
14105123900273602 0.0041780001 0.0000140000
14105123900273602 0.0000000000 0.0000000000
14105123940347358 0.0000080000 0.0000000000
14105123990693280 0.0000120000 0.0000000000
14105124140335195 0.0000120000 0.0000000000
14105124300179320 0.0000110000 0.0000000000
14105124310992050 0.0000140000 0.0000000000
14105124320051659 0.0003950000 0.0000000000
14105124420772435 0.0035720000 0.0000130000
14105124420772435 0.0000000000 0.0000000000
14105124480014688 0.0031049999 0.0000120000
14105124480014688 0.0000000000 0.0000000000
14105124490737831 0.0003670000 0.0000000000
14105124580689065 0.0000070000 0.0000000000
14105124610971622 0.0000100000 0.0000000000
14105124640649788 0.0044900002 0.0000060000
14105124640649788 0.0000000000 0.0000000000
14105124700361990 0.0032440000 0.0000130000
14105124700361990 0.0000000000 0.0000000000
14105124760168695 0.0000110000 0.0000000000
14105124790421854 0.0000160000 0.0000000000
14105124770357200 0.0005380000 0.0000000000
14105124830541325 0.0036980000 0.0000190000
14105124830541325 0.0000000000 0.0000000000
14105124900497224 0.0000110000 0.0000000000
14105124950575055 0.0031430000 0.0000130000
14105124950575055 0.0000000000 0.0000000000
14105124970728446 0.0000110000 0.0000000000
14105125060471391 0.0000200000 0.0000000000
14105125220126283 0.0003570000 0.0000000000
14105126340067338 0.0000080000 0.0000000000
14105126370056526 0.0000090000 0.0000000000
14105126390467642 0.0000090000 0.0000000000
14105126440710825 0.0000120000 0.0000000000
14105126480309008 0.0066330000 0.0000130000
14105126480309008 0.0000000000 0.0000000000
14105126500442186 0.0053320001 0.0000160000
14105126500442186 0.0000000000 0.0000000000
14105126490803488 0.0003550000 0.0000000000
14105126590935070 0.0000080000 0.0000000000
14105126630572135 0.0045520002 0.0000140000
14105126630572135 0.0000000000 0.0000000000
14105126670755769 0.0004150000 0.0000000000
14105126700483646 0.0003860000 0.0000000000
14105126730793613 0.0000140000 0.0000000000
14105126750980173 0.0000100000 0.0000000000
14105126790030161 0.0040620002 0.0000080000
14105126790030161 0.0000000000 0.0000000000
14105126800594392 0.0000100000 0.0000000000
14105126830778346 0.0000120000 0.0000000000
14105126890072454 0.0088050002 0.0000150000
14105126890072454 0.0000000000 0.0000000000
14105126910987089 0.0000090000 0.0000000000
14105126900146765 0.0004230000 0.0000000000
14105126950101050 0.0040600002 0.0000140000
14105126950101050 0.0000000000 0.0000000000
14105126980914026 0.0036530001 0.0000140000
14105126980914026 0.0000000000 0.0000000000
14105127000547158 0.0049769999 0.0000170000
14105127000547158 0.0000000000 0.0000000000
14105127000987726 0.0004060000 0.0000000000
14105127050003753 0.0003980000 0.0000000000
14105127130618653 0.0000120000 0.0000000000
14105127160781213 0.0000080000 0.0000000000
14105127180621063 0.0051400000 0.0000160000
14105127180621063 0.0000000000 0.0000000000
14105127250488191 0.0004040000 0.0000000000
14105127320898511 0.0003880000 0.0000000000
14105127370937449 0.0000070000 0.0000000000
14105127360196997 0.0003910000 0.0000000000
14105127400946237 0.0000110000 0.0000000000
14105127440114821 0.0052280002 0.0000140000
14105127440114821 0.0000000000 0.0000000000
14105127490232320 0.0075030001 0.0000130000
14105127490232320 0.0000000000 0.0000000000
14105127510374895 0.0047180001 0.0000130000
14105127510374895 0.0000000000 0.0000000000
14105127520998565 0.0044720001 0.0000340000
14105127520998565 0.0000000000 0.0000000000
14105127550249242 0.0000100000 0.0000000000
14105127550192968 0.0004570000 0.0000000000
14105127740992001 0.0000150000 0.0000000000
14105127890355841 0.0000130000 0.0000000000
14105127930484994 0.0000120000 0.0000000000
14105127940217492 0.0004250000 0.0000000000
14105128080864692 0.0043009999 0.0000130000
14105128080864692 0.0000000000 0.0000000000
14105128110401935 0.0004580000 0.0000000000
14105128170295730 0.0004210000 0.0000000000
14105128270193063 0.0043580001 0.0000200000
14105128270193063 0.0000000000 0.0000000000
14105128270650624 0.0004160000 0.0000000000
14105128440928226 0.0000120000 0.0000000000
14105128480408343 0.0000090000 0.0000000000
14105128530853865 0.0000110000 0.0000000000
14105128560279608 0.0000120000 0.0000000000
14105128600099500 0.0005090000 0.0000000000
14105128660386394 0.0041339998 0.0000120000
14105128660386394 0.0000000000 0.0000000000
14105128650166179 0.0004340000 0.0000000000
14105128740079772 0.0000130000 0.0000000000
14105128740636256 0.0044720001 0.0000140000
14105128740636256 0.0000000000 0.0000000000
14105128760776421 0.0000120000 0.0000000000
14105128780387478 0.0075969999 0.0000130000
14105128800227743 0.0041970001 0.0000130000
14105128800227743 0.0000000000 0.0000000000
14105128820526935 0.0040670000 0.0000140000
14105128820526935 0.0000000000 0.0000000000
14105128820197814 0.0004550000 0.0000000000
14105128910171103 0.0060000001 0.0000130000
14105128910171103 0.0000000000 0.0000000000
14105128970433306 0.0067500002 0.0000130000
14105128970433306 0.0000000000 0.0000000000
14105129010005288 0.0000090000 0.0000000000
14105128990452540 0.0005050000 0.0000000000
14105129110189163 0.0044399998 0.0000120000
14105129110189163 0.0000000000 0.0000000000
14105129170287739 0.0076580001 0.0000130000
14105129170287739 0.0000000000 0.0000000000
14105129200096495 0.0000170000 0.0000000000
14105129180971218 0.0003830000 0.0000000000
14105129250795946 0.0044869999 0.0000140000
14105129250795946 0.0000000000 0.0000000000
14105129270910646 0.0056989999 0.0000110000
14105129270910646 0.0000000000 0.0000000000
14105129290087564 0.0003680000 0.0000000000
14105129350059620 0.0000100000 0.0000000000
14105129380549571 0.0058260001 0.0000140000
14105129380549571 0.0000000000 0.0000000000
14105129400187991 0.0000100000 0.0000000000
14105129570335732 0.0000100000 0.0000000000
14105129600303206 0.0000090000 0.0000000000
14105129640978263 0.0000100000 0.0000000000
14105130010259880 0.0000190000 0.0000000000
14105130020350435 0.0000100000 0.0000000000
14105130040294839 0.0000170000 0.0000000000
14105130060405812 0.0000130000 0.0000000000
14105130080417154 0.0000130000 0.0000000000
14105130120018984 0.0000100000 0.0000000000
14105130130862769 0.0045530000 0.0000120000
14105130130862769 0.0000000000 0.0000000000
14105130190492172 0.0000120000 0.0000000000
14105130230113097 0.0000100000 0.0000000000
14105130250602535 0.0000130000 0.0000000000
14105130270425501 0.0003530000 0.0000000000
14105130350791143 0.0047749998 0.0000130000
14105130350791143 0.0000000000 0.0000000000
14105130390892653 0.0000100000 0.0000000000
14105130380655500 0.0003910000 0.0000000000
14105130450990364 0.0000160000 0.0000000000
14105130480268577 0.0000110000 0.0000000000
14105130460852423 0.0005320000 0.0000000000
14105130500772042 0.0004000000 0.0000000000
14105130580446594 0.0055040000 0.0000140000
14105130580446594 0.0000000000 0.0000000000
14105130650318485 0.0004080000 0.0000000000
14105130740535118 0.0000100000 0.0000000000
14105131040654140 0.0004030000 0.0000000000
14105131080287257 0.0004270000 0.0000000000
14105131100977226 0.0004540000 0.0000000000
14105131160503110 0.0042929999 0.0000080000
14105131160503110 0.0000000000 0.0000000000
14105131250728845 0.0000100000 0.0000000000
14105131290207242 0.0053349999 0.0000120000
14105131290207242 0.0000000000 0.0000000000
14105131310514020 0.0000090000 0.0000000000
14105131300307382 0.0003780000 0.0000000000
14105131370222405 0.0000080000 0.0000000000
14105131420434838 0.0000100000 0.0000000000
14105131460253774 0.0000080000 0.0000000000
14105131510971657 0.0000080000 0.0000000000
14105131520538336 0.0052540000 0.0000140000
14105131520538336 0.0000000000 0.0000000000
14105131650752847 0.0003840000 0.0000000000
14105131760389493 0.0000110000 0.0000000000
14105131790160472 0.0000070000 0.0000000000
14105131800132136 0.0003980000 0.0000000000
14105131840766740 0.0000080000 0.0000000000
14105131890161562 0.0051079998 0.0000140000
14105131890161562 0.0000000000 0.0000000000
14105132050177532 0.0000110000 0.0000000000
14105132050177532 0.0000000000 0.0000000000
14105132190081471 0.0000100000 0.0000000000
14105132240038375 0.0000110000 0.0000000000
14105132270472388 0.0000120000 0.0000000000
14105132310192266 0.0000080000 0.0000000000
14105132320582172 0.0003620000 0.0000000000
14105132400344002 0.0000090000 0.0000000000
14105132440879179 0.0000100000 0.0000000000
14105132460489381 0.0000120000 0.0000000000
14105132520488173 0.0000070000 0.0000000000
14105132560755223 0.0000070000 0.0000000000
14105132620672102 0.0000080000 0.0000000000
14105132900002501 0.0000110000 0.0000000000
14105132940417396 0.0000080000 0.0000000000
14105132960643671 0.0000080000 0.0000000000
14105132990958615 0.0000070000 0.0000000000
14105133090239610 0.0000090000 0.0000000000
14105133110709682 0.0004080000 0.0000000000
14105133180180518 0.0003710000 0.0000000000
14105133300529548 0.0003730000 0.0000000000
14105133340525825 0.0004320000 0.0000000000
14105133460735684 0.0000060000 0.0000000000
14105133490061845 0.0000290000 0.0000000000
14105133510138800 0.0000100000 0.0000000000
14105133550682058 0.0052590002 0.0000140000
14105133550682058 0.0000000000 0.0000000000
14105133610171135 0.0000100000 0.0000000000
14105133640559193 0.0062290002 0.0000140000
14105133640559193 0.0000000000 0.0000000000
14105133650934035 0.0000080000 0.0000000000
14105133670611396 0.0000080000 0.0000000000
14105133710649675 0.0000200000 0.0000000000
14105133690927718 0.0004870000 0.0000000000
14105133810219758 0.0000090000 0.0000000000
14105133790516312 0.0003990000 0.0000000000
14105133850892065 0.0000100000 0.0000000000
14105133900153856 0.0053240000 0.0000140000
14105133900153856 0.0000000000 0.0000000000
14105133890350949 0.0004080000 0.0000000000
14105133940694529 0.0000070000 0.0000000000
14105134080356304 0.0000080000 0.0000000000
14105134180235292 0.0003830000 0.0000000000
14105134230085002 0.0060100001 0.0000150000
14105134230085002 0.0000000000 0.0000000000
14105134270270077 0.0000130000 0.0000000000
14105134270270077 0.0000000000 0.0000000000
14105134290733690 0.0000120000 0.0000000000
14105134300322405 0.0057740002 0.0000130000
14105134320004909 0.0000000000 0.0000000000
14105134340549664 0.0000090000 0.0000000000
14105134360593505 0.0003560000 0.0000000000
14105134420634649 0.0000110000 0.0000000000
14105134440157782 0.0000100000 0.0000000000
14105134480830584 0.0000060000 0.0000000000
14105134480830584 0.0000000000 0.0000000000
14105135490931684 0.0000110000 0.0000000000
14105135570444932 0.0000110000 0.0000000000
14105135590073527 0.0000110000 0.0000000000
14105135580132840 0.0004200000 0.0000000000
14105135630817363 0.0000090000 0.0000000000
14105135660039834 0.0066740001 0.0000130000
14105135660039834 0.0000000000 0.0000000000
14105135680066473 0.0000080000 0.0000000000
14105135670388720 0.0003530000 0.0000000000
14105135740506776 0.0000090000 0.0000000000
14105135750853493 0.0003900000 0.0000000000
14105135800053449 0.0000080000 0.0000000000
14105135780927664 0.0004300000 0.0000000000
14105135870052462 0.0056730001 0.0001430000
14105135870563511 0.0003630000 0.0000000000
14105135920623330 0.0000090000 0.0000000000
14105136160070193 0.0000100000 0.0000000000
14105136190446209 0.0000100000 0.0000000000
14105136240180238 0.0003960000 0.0000000000
14105136320165850 0.0058040000 0.0000140000
14105136320165850 0.0000000000 0.0000000000
14105136330846223 0.0082040001 0.0000160000
14105136330846223 0.0000000000 0.0000000000
14105136390583058 0.0004190000 0.0000000000
14105136480368269 0.0004560000 0.0000000000
14105136560815293 0.0000150000 0.0000000000
14105136620427730 0.0003930000 0.0000000000
14105136800567704 0.0000120000 0.0000000000
14105137230596169 0.0000080000 0.0000000000
14105137260983297 0.0000090000 0.0000000000
14105137920948318 0.0000080000 0.0000000000
14105137950845567 0.0000090000 0.0000000000
14105138000975098 0.0000100000 0.0000000000
14105138180954850 0.0000090000 0.0000000000
14105138210449660 0.0000080000 0.0000000000
14105138340424490 0.0000110000 0.0000000000
14105138430340402 0.0000090000 0.0000000000
14105138450888195 0.0000100000 0.0000000000
14105138480654445 0.0000180000 0.0000000000
14105138480654445 0.0000000000 0.0000000000
14105138500720018 0.0000090000 0.0000000000
14105138510491131 0.0003700000 0.0000000000
14105138590942290 0.0061900001 0.0000130000
14105138590942290 0.0000000000 0.0000000000
14105138580957266 0.0003980000 0.0000000000
14105138650156788 0.0000090000 0.0000000000
14105138690253878 0.0000110000 0.0000000000
14105138870409996 0.0004020000 0.0000000000
14105139670947169 0.0000130000 0.0000000000
14105139740809508 0.0000070000 0.0000000000
14105139810549231 0.0000100000 0.0000000000
14105139820133243 0.0073810001 0.0000100000
14105139820133243 0.0000000000 0.0000000000
14105139840149638 0.0000100000 0.0000000000
14105139860720771 0.0003870000 0.0000000000
14105139920337867 0.0000140000 0.0000000000
14105139910860552 0.0003840000 0.0000000000
14105139950566988 0.0004030000 0.0000000000
14105140000622364 0.0003850000 0.0000000000
14105140020315107 0.0004520000 0.0000000000
14105140100563652 0.0062150001 0.0000140000
14105140100563652 0.0000000000 0.0000000000
14105140160129200 0.0081390003 0.0000130000
14105140160129200 0.0000000000 0.0000000000
14105140150036415 0.0004380000 0.0000000000
14105140230479283 0.0058180001 0.0000100000
14105140230479283 0.0000000000 0.0000000000
14105140280795181 0.0000080000 0.0000000000
14105140310169779 0.0000110000 0.0000000000
14105140370019110 0.0000100000 0.0000000000
14105140380257546 0.0003870000 0.0000000000
14105140430752315 0.0065250001 0.0000130000
14105140430752315 0.0000000000 0.0000000000
14105140450926964 0.0000090000 0.0000000000
14105140500819898 0.0134540005 0.0000140000
14105140500819898 0.0000000000 0.0000000000
14105140500973855 0.0004150000 0.0000000000
14105140580170791 0.0068230000 0.0000150000
14105140580170791 0.0000000000 0.0000000000
14105140800402153 0.0000090000 0.0000000000
14105140980677579 0.0000280000 0.0000000000
14105141030035840 0.0000110000 0.0000000000
14105141110275641 0.0000100000 0.0000000000
14105141170625864 0.0000090000 0.0000000000
14105141190686106 0.0000100000 0.0000000000
14105141210822658 0.0000080000 0.0000000000
14105141330723288 0.0000100000 0.0000000000
14105141430892029 0.0000090000 0.0000000000
14105141480385178 0.0000090000 0.0000000000
14105141520942853 0.0000180000 0.0000000000
14105141530539621 0.0065779998 0.0000130000
14105141530539621 0.0000000000 0.0000000000
14105141570218173 0.0000160000 0.0000000000
14105141590737946 0.0000120000 0.0000000000
14105141620406938 0.0081960000 0.0000130000
14105141620406938 0.0000000000 0.0000000000
14105141620735804 0.0004060000 0.0000000000
14105141660378952 0.0000060000 0.0000000000
14105141690002753 0.0077340002 0.0000140000
14105141690002753 0.0000000000 0.0000000000
14105141720238341 0.0077419998 0.0000100000
14105141720238341 0.0000000000 0.0000000000
14105141760958611 0.0062509999 0.0000100000
14105141760958611 0.0000000000 0.0000000000
14105141760985160 0.0003710000 0.0000000000
14105141830274634 0.0068410002 0.0000150000
14105141870387876 0.0115289995 0.0000130000
14105141870387876 0.0000000000 0.0000000000
14105141890324944 0.0005040000 0.0000000000
14105141960056740 0.0084210001 0.0000140000
14105141960056740 0.0000000000 0.0000000000
14105141980063003 0.0000120000 0.0000000000
14105142000015495 0.0000120000 0.0000000000
14105142000616663 0.0068990001 0.0000140000
14105142000616663 0.0000000000 0.0000000000
14105142070670692 0.0109970002 0.0000120000
14105142070670692 0.0000000000 0.0000000000
14105142070046626 0.0004020000 0.0000000000
14105142140515558 0.0072650001 0.0000140000
14105142140515558 0.0000000000 0.0000000000
14105142210810199 0.0000090000 0.0000000000
14105142190954323 0.0003310000 0.0000000000
14105142250630334 0.0000100000 0.0000000000
14105142300356235 0.0078110001 0.0000070000
14105142300356235 0.0000000000 0.0000000000
14105142320972213 0.0000100000 0.0000000000
14105142360600978 0.0000080000 0.0000000000
14105142350206489 0.0003330000 0.0000000000
14105142410805726 0.0067570000 0.0000120000
14105142410805726 0.0000000000 0.0000000000
14105142420255910 0.0004240000 0.0000000000
14105142490720010 0.0064429999 0.0000080000
14105142490720010 0.0000000000 0.0000000000
14105142510418462 0.0000120000 0.0000000000
14105142500081358 0.0003860000 0.0000000000
14105142570123144 0.0106450003 0.0000370000
14105142570123144 0.0000000000 0.0000000000
14105142580850069 0.0107969996 0.0000160000
14105142580850069 0.0000000000 0.0000000000
14105142600948427 0.0000090000 0.0000000000
14105142640095018 0.0000140000 0.0000000000
14105142720000036 0.0000110000 0.0000000000
14105142870159727 0.0000110000 0.0000000000
14105142980264871 0.0000080000 0.0000000000
14105143030045508 0.0000110000 0.0000000000
14105143070666404 0.0072360002 0.0000140000
14105143070666404 0.0000000000 0.0000000000
14105143090997699 0.0000110000 0.0000000000
14105143120621529 0.0110069998 0.0000350000
14105143120621529 0.0000000000 0.0000000000
14105143170859807 0.0070039998 0.0000110000
14105143170859807 0.0000000000 0.0000000000
14105143200096952 0.0000130000 0.0000000000
14105143230282882 0.0000060000 0.0000000000
14105143500188092 0.0003960000 0.0000000000
14105143600799731 0.0000090000 0.0000000000
14105143610399483 0.0072869998 0.0000130000
14105143640010772 0.0000000000 0.0000000000
14105143640864157 0.0003860000 0.0000000000
14105143680890523 0.0000090000 0.0000000000
14105143700434332 0.0000090000 0.0000000000
14105143720689657 0.0098329997 0.0000140000
14105143720689657 0.0000000000 0.0000000000
14105143760665170 0.0000090000 0.0000000000
14105143780949860 0.0000100000 0.0000000000
14105143770376613 0.0004130000 0.0000000000
14105143820658487 0.0073899999 0.0000150000
14105143820658487 0.0000000000 0.0000000000
14105143940076996 0.0000100000 0.0000000000
14105143990655945 0.0074419999 0.0000130000
14105143990655945 0.0000000000 0.0000000000
14105144040211912 0.0000160000 0.0000000000
14105144080179820 0.0094349999 0.0000130000
14105144080179820 0.0000000000 0.0000000000
14105144110076359 0.0000100000 0.0000000000
14105144140349450 0.0000110000 0.0000000000
14105144160424642 0.0000160000 0.0000000000
14105144180704740 0.0000080000 0.0000000000
14105144170118517 0.0004860000 0.0000000000
14105144260468350 0.0000150000 0.0000000000
14105144320472462 0.0000110000 0.0000000000
14105144360899030 0.0000120000 0.0000000000
14105144350160486 0.0005460000 0.0000000000
14105144450339443 0.0081270002 0.0000170000
14105144450339443 0.0000000000 0.0000000000
14105144480544929 0.0000090000 0.0000000000
14105144480644133 0.0004960000 0.0000000000
14105144630940734 0.0079659997 0.0000140000
14105144630940734 0.0000000000 0.0000000000
14105144650183705 0.0071850000 0.0000080000
14105144650183705 0.0000000000 0.0000000000
14105144790471127 0.0098770000 0.0000160000
14105144790471127 0.0000000000 0.0000000000
14105144780304242 0.0005440000 0.0000000000
14105144830815341 0.0000100000 0.0000000000
14105144870583521 0.0070509999 0.0000100000
14105144870583521 0.0000000000 0.0000000000
14105144920984464 0.0138860000 0.0000150000
14105144920984464 0.0000000000 0.0000000000
14105144960888300 0.0000110000 0.0000000000
14105144950521986 0.0003710000 0.0000000000
14105144990196743 0.0005020000 0.0000000000
14105145050217212 0.0083079999 0.0000150000
14105145050217212 0.0000000000 0.0000000000
14105145100592231 0.0000110000 0.0000000000
14105145110216137 0.0071370001 0.0000110000
14105145110216137 0.0000000000 0.0000000000
14105145100828791 0.0003990000 0.0000000000
14105145170526029 0.0000150000 0.0000000000
14105145220722678 0.0275599994 0.0000150000
14105145270379799 0.0102150002 0.0000130000
14105145270982939 0.0073310002 0.0000350000
14105145270982939 0.0000000000 0.0000000000
14105145260870668 0.0005150000 0.0000000000
14105145310317127 0.0073529999 0.0000130000
14105145310317127 0.0000000000 0.0000000000
14105145340547078 0.0000080000 0.0000000000
14105145350153218 0.0077590002 0.0000130000
14105145350153218 0.0000000000 0.0000000000
14105145370421444 0.0000110000 0.0000000000
14105145410408923 0.0147759998 0.0000130000
14105145430894399 0.0000000000 0.0000000000
14105145470646529 0.0004320000 0.0000000000
14105145490570221 0.0004470000 0.0000000000
14105145530264592 0.0004680000 0.0000000000
14105145620508789 0.0004080000 0.0000000000
14105145720854461 0.0175560005 0.0000150000
14105145720854461 0.0000000000 0.0000000000
14105145730315488 0.0003610000 0.0000000000
14105145820269250 0.0137550002 0.0000130000
14105145820269250 0.0000000000 0.0000000000
14105145840524495 0.0088250004 0.0000130000
14105145840524495 0.0000000000 0.0000000000
14105145860007778 0.0004700000 0.0000000000
14105145940066294 0.0000140000 0.0000000000
14105145940709971 0.0004080000 0.0000000000
14105146000193940 0.0079269996 0.0000130000
14105146000193940 0.0000000000 0.0000000000
14105146040474587 0.0092519997 0.0000110000
14105146040474587 0.0000000000 0.0000000000
14105146100847119 0.0081179999 0.0000150000
14105146100847119 0.0000000000 0.0000000000
14105146090730191 0.0003780000 0.0000000000
14105146120556738 0.0003810000 0.0000000000
14105146180216496 0.0000100000 0.0000000000
14105146200807384 0.0127200000 0.0000130000
14105146200807384 0.0000000000 0.0000000000
14105146280128874 0.0080829998 0.0000160000
14105146340161237 0.0089710001 0.0000130000
14105146340161237 0.0000000000 0.0000000000
14105146370002813 0.0000080000 0.0000000000
14105146400238963 0.0125519997 0.0000130000
14105146400238963 0.0000000000 0.0000000000
14105146470072321 0.0000130000 0.0000000000
14105146500881993 0.0000110000 0.0000000000
14105146800932763 0.0000130000 0.0000000000
14105147020636079 0.0003820000 0.0000000000
14105148670984660 0.0004110000 0.0000000000
14105148730427393 0.0092770001 0.0000150000
14105148730427393 0.0000000000 0.0000000000
14105148790994533 0.0004080000 0.0000000000
14105148890829545 0.0091129998 0.0000130000
14105148890829545 0.0000000000 0.0000000000
14105148900879749 0.0004080000 0.0000000000
14105148980241038 0.0112600001 0.0000120000
14105148980241038 0.0000000000 0.0000000000
14105149040018434 0.0087799998 0.0000120000
14105149040018434 0.0000000000 0.0000000000
14105149070840683 0.0005080000 0.0000000000
14105149220435603 0.0000080000 0.0000000000
14105149300051051 0.0000090000 0.0000000000
14105149370827847 0.0003800000 0.0000000000
14105149440261722 0.0000100000 0.0000000000
14105149480421966 0.0000230000 0.0000000000
14105149500548817 0.0000080000 0.0000000000
14105149520395153 0.0000100000 0.0000000000
14105149550575568 0.0000120000 0.0000000000
14105149630550604 0.0000090000 0.0000000000
14105149820422239 0.0000090000 0.0000000000
14105149840974489 0.0000080000 0.0000000000
14105149890804964 0.0000170000 0.0000000000
14105149920985787 0.0000110000 0.0000000000
14105150250091639 0.0000140000 0.0000000000
14105150280855826 0.0000080000 0.0000000000
14105150410995132 0.0000100000 0.0000000000
14105150520546690 0.0000080000 0.0000000000
14105150550369141 0.0000090000 0.0000000000
14105151270744622 0.0000130000 0.0000000000
14105151400928387 0.0000110000 0.0000000000
14105151400928387 0.0000000000 0.0000000000
14105151480171155 0.0000090000 0.0000000000
14105151500899760 0.0000080000 0.0000000000
14105151710821201 0.0000140000 0.0000000000
14105151750895934 0.0000080000 0.0000000000
14105151780264937 0.0000100000 0.0000000000
14105151790738882 0.0000080000 0.0000000000
14105151820412045 0.0000100000 0.0000000000
14105151840621461 0.0000100000 0.0000000000
14105151870126292 0.0000070000 0.0000000000
14105151850229318 0.0003860000 0.0000000000
14105151920551974 0.0089410003 0.0000120000
14105151920551974 0.0000000000 0.0000000000
14105151920399645 0.0003640000 0.0000000000
14105151950128637 0.0003680000 0.0000000000
14105152010580964 0.0082190000 0.0000330000
14105152010580964 0.0000000000 0.0000000000
14105152040985010 0.0004000000 0.0000000000
14105152370134315 0.0109810000 0.0000140000
14105152370134315 0.0000000000 0.0000000000
14105152410844233 0.0106090000 0.0000130000
14105152410844233 0.0000000000 0.0000000000
14105152440325720 0.0000090000 0.0000000000
14105152820506316 0.0000120000 0.0000000000
14105152980201529 0.0000110000 0.0000000000
14105153050686043 0.0000110000 0.0000000000
14105153120357658 0.0000080000 0.0000000000
14105153110042842 0.0003970000 0.0000000000
14105153170461293 0.0086300001 0.0000160000
14105153170461293 0.0000000000 0.0000000000
14105153200080049 0.0000090000 0.0000000000
14105153180809731 0.0003900000 0.0000000000
14105153310769914 0.0000080000 0.0000000000
14105153420273564 0.0000080000 0.0000000000
14105153530653273 0.0000140000 0.0000000000
14105153720750304 0.0000090000 0.0000000000
14105153760933833 0.0000080000 0.0000000000
14105153810558638 0.0000090000 0.0000000000
14105153840943897 0.0114300000 0.0000140000
14105153840943897 0.0000000000 0.0000000000
14105153870898747 0.0000090000 0.0000000000
14105153920249103 0.0000110000 0.0000000000
14105153940833700 0.0102660004 0.0000160000
14105153940833700 0.0000000000 0.0000000000
14105154020855240 0.0000120000 0.0000000000
14105154050042916 0.0130080003 0.0000140000
14105154050042916 0.0000000000 0.0000000000
14105154060384504 0.0151979998 0.0000140000
14105154060384504 0.0000000000 0.0000000000
14105154080960625 0.0004620000 0.0000000000
14105154170071010 0.0000070000 0.0000000000
14105154160899085 0.0003670000 0.0000000000
14105154230100562 0.0105579998 0.0000130000
14105154230100562 0.0000000000 0.0000000000
14105154250308506 0.0004310000 0.0000000000
14105154290294262 0.0003500000 0.0000000000
14105154330716266 0.0004250000 0.0000000000
14105154380796366 0.0112509998 0.0000150000
14105154380796366 0.0000000000 0.0000000000
14105154370718980 0.0003540000 0.0000000000
14105154440756440 0.0093510002 0.0000140000
14105154440756440 0.0000000000 0.0000000000
14105154450067937 0.0004510000 0.0000000000
14105154530737114 0.0101340003 0.0000140000
14105154530737114 0.0000000000 0.0000000000
14105154550781966 0.0000000000 0.0000000000
14105154560483528 0.0105670001 0.0000140000
14105154560483528 0.0000000000 0.0000000000
14105154580922660 0.0003830000 0.0000000000
14105154660922105 0.0106370002 0.0000130000
14105154660922105 0.0000000000 0.0000000000
14105154660441537 0.0004340000 0.0000000000
14105154690892691 0.0003480000 0.0000000000
14105154740959703 0.0096509997 0.0000140000
14105154740959703 0.0000000000 0.0000000000
14105154810781551 0.0107159996 0.0000140000
14105154810964214 0.0000000000 0.0000000000
14105154850987565 0.0101619996 0.0000130000
14105154850987565 0.0000000000 0.0000000000
14105154910765383 0.0000120000 0.0000000000
14105154910409668 0.0003830000 0.0000000000
14105154960034792 0.0101070004 0.0000130000
14105154960034792 0.0000000000 0.0000000000
14105155000743509 0.0000110000 0.0000000000
14105155020961752 0.0000130000 0.0000000000
14105155610694188 0.0000110000 0.0000000000
14105155690059590 0.0000130000 0.0000000000
14105155710643783 0.0000200000 0.0000000000
14105155750041862 0.0000120000 0.0000000000
14105155770979517 0.0000090000 0.0000000000
14105155850647350 0.0114050005 0.0000140000
14105155850647350 0.0000000000 0.0000000000
14105155900611413 0.0000090000 0.0000000000
14105155930826824 0.0000140000 0.0000000000
14105155960509453 0.0000090000 0.0000000000
14105155990957126 0.0000100000 0.0000000000
14105156020465357 0.0142369997 0.0000140000
14105156020465357 0.0000000000 0.0000000000
14105156010547240 0.0003660000 0.0000000000
14105156040248455 0.0003860000 0.0000000000
14105156120556668 0.0099050002 0.0000130000
14105156140289119 0.0000000000 0.0000000000
14105156170117389 0.0097960001 0.0000140000
14105156170117389 0.0000000000 0.0000000000
14105156190843555 0.0000130000 0.0000000000
14105156200489251 0.0102230003 0.0000140000
14105156200489251 0.0000000000 0.0000000000
14105156230318609 0.0000110000 0.0000000000
14105156250586380 0.0129930004 0.0000130000
14105156250586380 0.0000000000 0.0000000000
14105156290417620 0.0098270001 0.0000130000
14105156290417620 0.0000000000 0.0000000000
14105156340054103 0.0107960002 0.0000140000
14105156340054103 0.0000000000 0.0000000000
14105156350386075 0.0004450000 0.0000000000
14105156440053171 0.0000100000 0.0000000000
14105156440694009 0.0109230001 0.0000130000
14105156440694009 0.0000000000 0.0000000000
14105156450818334 0.0005780000 0.0000000000
14105156510179815 0.0108319996 0.0000130000
14105156510179815 0.0000000000 0.0000000000
14105156530551099 0.0000080000 0.0000000000
14105156570095007 0.0182000007 0.0000150000
14105156570095007 0.0000000000 0.0000000000
14105156600722597 0.0000130000 0.0000000000
14105156610364056 0.0112490002 0.0000140000
14105156610364056 0.0000000000 0.0000000000
14105156600784087 0.0003850000 0.0000000000
14105156650784306 0.0000170000 0.0000000000
14105156690769488 0.0000120000 0.0000000000
14105156720820817 0.0142360004 0.0000110000
14105156720820817 0.0000000000 0.0000000000
14105156730189049 0.0003670000 0.0000000000
14105156800522222 0.0000200000 0.0000000000
14105156830089138 0.0000120000 0.0000000000
14105156870748761 0.0000090000 0.0000000000
14105156900840388 0.0000390000 0.0000000000
14105156930363699 0.0000390000 0.0000000000
14105157020272978 0.0000600000 0.0000000000
14105157050350968 0.0000370000 0.0000000000
14105157200951667 0.0000380000 0.0000000000
14105157260954068 0.0000380000 0.0000000000
14105157300149437 0.0000260000 0.0000000000
14105157340120453 0.0000320000 0.0000000000
14105157370877622 0.0904169977 0.0000390000
14105157390186263 0.0000000000 0.0000000000
14105157410066743 0.0014250000 0.0000000000
14105157500592946 0.0000380000 0.0000000000
14105157500253687 0.0019050000 0.0000000000
14105157580193924 0.0404799990 0.0000340000
14105157580193924 0.0000000000 0.0000000000
14105157630424684 0.0000450000 0.0000000000
14105157710992779 0.0011780000 0.0000000000
14105157810034910 0.0476109982 0.0000360000
14105157810034910 0.0000000000 0.0000000000
14105157840791310 0.0011930000 0.0000000000
14105157920590204 0.0543150008 0.0000370000
14105157920590204 0.0000000000 0.0000000000
14105157930070379 0.0012450001 0.0000000000
14105158050497036 0.0000390000 0.0000000000
14105158080875293 0.0000350000 0.0000000000
14105158120047381 0.0539779998 0.0000490000
14105158120047381 0.0000000000 0.0000000000
14105158120697334 0.0019160000 0.0000000000
14105158650120386 0.0621519983 0.0000520000
14105158650120386 0.0000000000 0.0000000000
14105158720813906 0.0860750005 0.0000360000
14105158720813906 0.0000000000 0.0000000000
14105158820316343 0.0598400012 0.0000340000
14105158820316343 0.0000000000 0.0000000000
14105158990259765 0.0444260016 0.0000350000
14105158990259765 0.0000000000 0.0000000000
14105159000113798 0.0014909999 0.0000000000
14105159280043187 0.0917590037 0.0000500000
14105159290434359 0.0647030026 0.0000460000
14105159290434359 0.0000000000 0.0000000000
14105159310149852 0.0012130000 0.0000000000
14105159370245069 0.0000420000 0.0000000000
14105159400280538 0.0000330000 0.0000000000
14105159410530924 0.0479880013 0.0000350000
14105159410530924 0.0000000000 0.0000000000
14105159490519052 0.1432359964 0.0000350000
14105159490519052 0.0000000000 0.0000000000
14105159520472063 0.0017980000 0.0000000000
14105159630886506 0.0471579991 0.0000320000
14105159650877890 0.0000000000 0.0000000000
14105159650430621 0.0013120000 0.0000000000
14105159710968972 0.0000700000 0.0000000000
14105161010213880 0.0014120000 0.0000000000
14105161050622248 0.0717900023 0.0000390000
14105161050622248 0.0000000000 0.0000000000
14105161050671458 0.0012500000 0.0000000000
14105163170390313 0.0000350000 0.0000000000
14105163200662256 0.0000140000 0.0000000000
14105163220518153 0.0000130000 0.0000000000
14105163220518153 0.0000000000 0.0000000000
14105163390384166 0.0004210000 0.0000000000
14105163480558188 0.0156660005 0.0000130000
14105163480558188 0.0000000000 0.0000000000
14105163530320308 0.0123009998 0.0000130000
14105163530320308 0.0000000000 0.0000000000
14105163580124685 0.0000130000 0.0000000000
14105163580792716 0.0127429999 0.0000150000
14105163590931713 0.0000000000 0.0000000000
14105163590946073 0.0003720000 0.0000000000
14105163650928109 0.0004130000 0.0000000000
14105163680013044 0.0003780000 0.0000000000
14105163710296657 0.0003980000 0.0000000000
14105163810937333 0.0145089999 0.0000130000
14105163810937333 0.0000000000 0.0000000000
14105163840420097 0.0003910000 0.0000000000
14105163900041403 0.0000130000 0.0000000000
14105163880378859 0.0003830000 0.0000000000
14105163960652736 0.0113859996 0.0000140000
14105163960652736 0.0000000000 0.0000000000
14105163990203277 0.0157500003 0.0000140000
14105163990203277 0.0000000000 0.0000000000
14105164010586134 0.0128030004 0.0000140000
14105164010586134 0.0000000000 0.0000000000
14105164030953893 0.0003840000 0.0000000000
14105164090137609 0.0003950000 0.0000000000
14105164130209281 0.0000110000 0.0000000000
14105164100969176 0.0003960000 0.0000000000
14105164140999762 0.0006730000 0.0000000000
14105164190961056 0.0000080000 0.0000000000
14105164230304613 0.0140589997 0.0000130000
14105164230304613 0.0000000000 0.0000000000
14105164230218900 0.0006960000 0.0000000000
14105164320899655 0.0147719998 0.0000160000
14105164320899655 0.0000000000 0.0000000000
14105164330348150 0.0003840000 0.0000000000
14105164420752692 0.0156319998 0.0000120000
14105164420752692 0.0000000000 0.0000000000
14105164430051475 0.0005210000 0.0000000000
14105164500531367 0.0003940000 0.0000000000
14105164560952246 0.0135430004 0.0000130000
14105164560952246 0.0000000000 0.0000000000
14105164580871582 0.0003380000 0.0000000000
14105164610493381 0.0003880000 0.0000000000
14105164750160556 0.0128849996 0.0000130000
14105164750160556 0.0000000000 0.0000000000
14105165040806256 0.0003830000 0.0000000000
14105165220338171 0.0130970003 0.0000130000
14105165220338171 0.0000000000 0.0000000000
14105165230726106 0.0155090000 0.0000140000
14105165230726106 0.0000000000 0.0000000000
14105165290186857 0.0148900002 0.0000170000
14105165290186857 0.0000000000 0.0000000000
14105165300446096 0.0132860001 0.0000140000
14105165300446096 0.0000000000 0.0000000000
14105165340536005 0.0112060001 0.0000130000
14105165340536005 0.0000000000 0.0000000000
14105165350944078 0.0000130000 0.0000000000
14105165380054193 0.0000000000 0.0000000000
14105165890311015 0.0000130000 0.0000000000
14105165880138962 0.0003860000 0.0000000000
14105165990918324 0.0150149995 0.0000140000
14105165990918324 0.0000000000 0.0000000000
14105166110675407 0.0003860000 0.0000000000
14105166150636050 0.0003720000 0.0000000000
14105166220673159 0.0210890006 0.0000290000
14105166220673159 0.0000000000 0.0000000000
14105166400637062 0.0000090000 0.0000000000
14105166450880379 0.0000080000 0.0000000000
14105166490906031 0.0000090000 0.0000000000
14105166480459598 0.0004420000 0.0000000000
14105166570254226 0.0123020001 0.0000280000
14105166570254226 0.0000000000 0.0000000000
14105166590174098 0.0000110000 0.0000000000
14105166630897152 0.0154660000 0.0000140000
14105166630897152 0.0000000000 0.0000000000
14105166660954531 0.0003880000 0.0000000000
14105166730456723 0.0146939997 0.0000140000
14105166730978583 0.0000000000 0.0000000000
14105166770600405 0.0000120000 0.0000000000
14105167170508583 0.0000090000 0.0000000000
14105167200789930 0.0000120000 0.0000000000
14105167360345795 0.0000090000 0.0000000000
14105167510952226 0.0000140000 0.0000000000
14105167550579847 0.0000100000 0.0000000000
14105167580350592 0.0211539995 0.0000130000
14105167580350592 0.0000000000 0.0000000000
14105167620469335 0.0000090000 0.0000000000
14105167600491906 0.0005260000 0.0000000000
14105167780049008 0.0000080000 0.0000000000
14105167790075303 0.0000130000 0.0000000000
14105167790878712 0.0000080000 0.0000000000
14105167820421068 0.0000120000 0.0000000000
14105167890115212 0.0000060000 0.0000000000
14105167890801796 0.0170380007 0.0000140000
14105167890801796 0.0000000000 0.0000000000
14105167890253859 0.0003820000 0.0000000000
14105168000906982 0.0139340004 0.0000250000
14105168000906982 0.0000000000 0.0000000000
14105168080943332 0.0144339995 0.0000130000
14105168080943332 0.0000000000 0.0000000000
14105168160210315 0.0141129997 0.0000130000
14105168160210315 0.0000000000 0.0000000000
14105168200438330 0.0000110000 0.0000000000
14105168260648757 0.0134640001 0.0000150000
14105168260648757 0.0000000000 0.0000000000
14105168260648757 0.0000000000 0.0000000000
14105168290734051 0.0003670000 0.0000000000
14105168380083718 0.0000070000 0.0000000000
14105168400314991 0.0003720000 0.0000000000
14105168550221193 0.0300760008 0.0000150000
14105168550221193 0.0000000000 0.0000000000
14105168660174271 0.0003710000 0.0000000000
14105168710793813 0.0003900000 0.0000000000
14105169100430749 0.0000100000 0.0000000000
14105169100130512 0.0003970000 0.0000000000
14105169170376773 0.0000250000 0.0000000000
14105169180053631 0.0150859999 0.0000190000
14105169180053631 0.0000000000 0.0000000000
14105169200175669 0.0003780000 0.0000000000
14105169290142499 0.0145060001 0.0000180000
14105169290142499 0.0000000000 0.0000000000
14105169280995533 0.0003200000 0.0000000000
14105169330089888 0.0003720000 0.0000000000
14105169370793866 0.0003740000 0.0000000000
14105169440037756 0.0152709996 0.0000120000
14105169480240310 0.0162330009 0.0000160000
14105169480240310 0.0000000000 0.0000000000
14105169470213197 0.0003970000 0.0000000000
14105169600788646 0.0000060000 0.0000000000
14105171390310461 0.0000120000 0.0000000000
14105171510118148 0.0000220000 0.0000000000
14105171490897670 0.0003700000 0.0000000000
14105171620260568 0.0000090000 0.0000000000
14105171670235312 0.0000070000 0.0000000000
14105171700780519 0.0000090000 0.0000000000
14105171710474770 0.0138130002 0.0000150000
14105171710474770 0.0000000000 0.0000000000
14105171740516773 0.0000080000 0.0000000000
14105172100305117 0.0000080000 0.0000000000
14105172110037429 0.0004720000 0.0000000000
14105172170096008 0.0000090000 0.0000000000
14105172190316886 0.0003980000 0.0000000000
14105172260423372 0.0000050000 0.0000000000
14105172320724299 0.0005760000 0.0000000000
14105172370649059 0.0005090000 0.0000000000
14105172510149923 0.0000130000 0.0000000000
14105172500908629 0.0003790000 0.0000000000
14105172620691558 0.0000080000 0.0000000000
14105172720060309 0.0000100000 0.0000000000
14105172740756621 0.0003480000 0.0000000000
14105172920223953 0.0000080000 0.0000000000
14105173070959897 0.0003830000 0.0000000000
14105173140753029 0.0000090000 0.0000000000
14105173220001404 0.0000110000 0.0000000000
14105173330551362 0.0003980000 0.0000000000
14105173390428140 0.0143379997 0.0000140000
14105173390428140 0.0000000000 0.0000000000
14105173390230435 0.0003940000 0.0000000000
14105173520522556 0.0163410008 0.0000240000
14105173520522556 0.0000000000 0.0000000000
14105173540615417 0.0003580000 0.0000000000
14105173560898526 0.0003450000 0.0000000000
14105173610604505 0.0005240000 0.0000000000
14105173670081801 0.0003630000 0.0000000000
14105173700489426 0.0006890000 0.0000000000
14105173810330711 0.0153649999 0.0000150000
14105173850898291 0.0167580005 0.0000460000
14105173850898291 0.0000000000 0.0000000000
14105173960490843 0.0000090000 0.0000000000
14105174110987234 0.0004240000 0.0000000000
14105174300206037 0.0004080000 0.0000000000
14105174320994621 0.0004110000 0.0000000000
14105174450049924 0.0000050000 0.0000000000
14105174600470982 0.0202339999 0.0000130000
14105174600470982 0.0000000000 0.0000000000
14105174610858313 0.0157089997 0.0000140000
14105174610858313 0.0000000000 0.0000000000
14105174680390143 0.0361940004 0.0000140000
14105174680390143 0.0000000000 0.0000000000
14105174750127641 0.0145469997 0.0000390000
14105174750127641 0.0000000000 0.0000000000
14105174790320649 0.0000120000 0.0000000000
14105174780724301 0.0003970000 0.0000000000
14105174810414597 0.0003280000 0.0000000000
14105174860836833 0.0149659999 0.0000140000
14105174860836833 0.0000000000 0.0000000000
14105174870757074 0.0003940000 0.0000000000
14105174950958760 0.0219459999 0.0000150000
14105174950958760 0.0000000000 0.0000000000
14105175040778062 0.0000080000 0.0000000000
14105175060570461 0.0004120000 0.0000000000
14105175150782571 0.0000070000 0.0000000000
14105175240311628 0.0000120000 0.0000000000
14105175300727257 0.0157280006 0.0000130000
14105175300727257 0.0000000000 0.0000000000
14105175340586770 0.0000090000 0.0000000000
14105175350280213 0.0150429998 0.0000140000
14105175350280213 0.0000000000 0.0000000000
14105175420557081 0.0000110000 0.0000000000
14105175460116355 0.0000090000 0.0000000000
14105175510463505 0.0000100000 0.0000000000
14105175520579481 0.0000120000 0.0000000000
14105175570299811 0.0000100000 0.0000000000
14105175600742680 0.0004370000 0.0000000000
14105175630202469 0.0003700000 0.0000000000
14105175710460848 0.0003620000 0.0000000000
14105175760543041 0.0161169991 0.0000150000
14105175760543041 0.0000000000 0.0000000000
14105175850522063 0.0003610000 0.0000000000
14105175980402230 0.0000100000 0.0000000000
14105176020868590 0.0000100000 0.0000000000
14105176040329646 0.0000110000 0.0000000000
14105176020238769 0.0003820000 0.0000000000
14105176150660888 0.0229460001 0.0000130000
14105176150660888 0.0000000000 0.0000000000
14105176240873641 0.0161680002 0.0000370000
14105176240873641 0.0000000000 0.0000000000
14105176290360945 0.0005580000 0.0000000000
14105176370506872 0.0164999999 0.0000180000
14105176370506872 0.0000000000 0.0000000000
14105176370506872 0.0000000000 0.0000000000
14105176430660386 0.0000090000 0.0000000000
14105176480435964 0.0000100000 0.0000000000
14105176820604062 0.0000190000 0.0000000000
14105176940398094 0.0000090000 0.0000000000
14105176980333462 0.0003740000 0.0000000000
14105177040808959 0.0142120002 0.0000110000
14105177040808959 0.0000000000 0.0000000000
14105177050641706 0.0004410000 0.0000000000
14105177130920868 0.0161639992 0.0000200000
14105177130920868 0.0000000000 0.0000000000
14105177130524869 0.0004040000 0.0000000000
14105177230523974 0.0153280003 0.0000140000
14105177230523974 0.0000000000 0.0000000000
14105177230632544 0.0003590000 0.0000000000
14105177350136192 0.0184909999 0.0000130000
14105177350136192 0.0000000000 0.0000000000
14105177350443128 0.0003890000 0.0000000000
14105177410736840 0.0155459996 0.0000350000
14105177410736840 0.0000000000 0.0000000000
14105177450576967 0.0004270000 0.0000000000
14105177510707401 0.0004070000 0.0000000000
14105177560442244 0.0003920000 0.0000000000
14105177650408158 0.0000070000 0.0000000000
14105179040221356 0.0000130000 0.0000000000
14105179550211842 0.0000110000 0.0000000000
14105179610882210 0.0000130000 0.0000000000
14105179680955460 0.0000100000 0.0000000000
14105179700924762 0.0003870000 0.0000000000
14105179850429898 0.0005500000 0.0000000000
14105179910012055 0.0000110000 0.0000000000
14105179980777840 0.0000090000 0.0000000000
14105180060655665 0.0000140000 0.0000000000
14105180120409100 0.0000120000 0.0000000000
14105180180231714 0.0000090000 0.0000000000
14105180230065651 0.0194610003 0.0000140000
14105180230065651 0.0000000000 0.0000000000
14105180270040834 0.0165429991 0.0000130000
14105180270040834 0.0000000000 0.0000000000
14105180300921142 0.0000110000 0.0000000000
14105180360246224 0.0000100000 0.0000000000
14105180420572066 0.0197149999 0.0000130000
14105180420572066 0.0000000000 0.0000000000
14105180500114014 0.0000110000 0.0000000000
14105180520851792 0.0000130000 0.0000000000
14105180600010152 0.0153000001 0.0000170000
14105180600010152 0.0000000000 0.0000000000
14105180640758131 0.0175759997 0.0000140000
14105180640758131 0.0000000000 0.0000000000
14105180690039526 0.0156720001 0.0000130000
14105180690039526 0.0000000000 0.0000000000
14105180700199322 0.0004280000 0.0000000000
14105180760755196 0.0154919997 0.0000130000
14105180760755196 0.0000000000 0.0000000000
14105180770284633 0.0004080000 0.0000000000
14105180840412983 0.0149809998 0.0000130000
14105180900051582 0.0151239997 0.0000150000
14105180900051582 0.0000000000 0.0000000000
14105180910299152 0.0003880000 0.0000000000
14105180990739996 0.0160169993 0.0000220000
14105180990739996 0.0000000000 0.0000000000
14105181000119012 0.0003790000 0.0000000000
14105181030691971 0.0003690000 0.0000000000
14105181100290604 0.0175599996 0.0000140000
14105181100290604 0.0000000000 0.0000000000
14105181090591234 0.0004410000 0.0000000000
14105181130760990 0.0004050000 0.0000000000
14105181210932062 0.0169610009 0.0000150000
14105181210932062 0.0000000000 0.0000000000
14105181310123416 0.0143780001 0.0000130000
14105181310123416 0.0000000000 0.0000000000
14105181320593869 0.0191500001 0.0000140000
14105181320593869 0.0000000000 0.0000000000
14105181350411090 0.0000180000 0.0000000000
14105181370067283 0.0000130000 0.0000000000
14105181410565869 0.0166170001 0.0000140000
14105181410565869 0.0000000000 0.0000000000
14105181410563304 0.0003900000 0.0000000000
14105181500334360 0.0000110000 0.0000000000
14105181550443628 0.0000120000 0.0000000000
14105181570962758 0.0000130000 0.0000000000
14105181630986892 0.0000130000 0.0000000000
14105181670470055 0.0003920000 0.0000000000
14105181730504877 0.0000100000 0.0000000000
14105181760920635 0.0000110000 0.0000000000
14105181750025773 0.0004050000 0.0000000000
14105181890940481 0.0229739994 0.0000400000
14105181890940481 0.0000000000 0.0000000000
14105181900241503 0.0003910000 0.0000000000
14105181970244442 0.0003720000 0.0000000000
14105182060358040 0.0179549996 0.0000140000
14105182060358040 0.0000000000 0.0000000000
14105182050472484 0.0003920000 0.0000000000
14105182140069904 0.0005790000 0.0000000000
14105182210379853 0.0003760000 0.0000000000
14105182360018305 0.0161649995 0.0000140000
14105182360018305 0.0000000000 0.0000000000
14105182390319879 0.0166779999 0.0000130000
14105182390319879 0.0000000000 0.0000000000
14105182390334144 0.0004030000 0.0000000000
14105182470388160 0.0000110000 0.0000000000
14105182470388160 0.0000000000 0.0000000000
14105182540492505 0.0160820000 0.0000130000
14105182540492505 0.0000000000 0.0000000000
14105182590630939 0.0000120000 0.0000000000
14105182650409874 0.0226140004 0.0000160000
14105182660125346 0.0164139997 0.0000140000
14105182660125346 0.0000000000 0.0000000000
14105182700118492 0.0000140000 0.0000000000
14105182730836237 0.0000090000 0.0000000000
14105182740570237 0.0164379999 0.0000140000
14105182760128590 0.0000000000 0.0000000000
14105182750988878 0.0004040000 0.0000000000
14105182810588955 0.0000120000 0.0000000000
14105182820303552 0.0184409991 0.0000190000
14105182820303552 0.0000000000 0.0000000000
14105182850017928 0.0000100000 0.0000000000
14105182910804964 0.0003950000 0.0000000000
14105183000616636 0.0000110000 0.0000000000
14105183030331215 0.0000110000 0.0000000000
14105183010758103 0.0003840000 0.0000000000
14105183130520060 0.0003560000 0.0000000000
14105183170803393 0.0003810000 0.0000000000
14105183200065846 0.0003770000 0.0000000000
14105183280211468 0.0000090000 0.0000000000
14105183320574290 0.0003790000 0.0000000000
14105183350245594 0.0003540000 0.0000000000
14105183450588302 0.0000100000 0.0000000000
14105183460948953 0.0000160000 0.0000000000
14105183500347004 0.0000110000 0.0000000000
14105183560081915 0.0000160000 0.0000000000
14105183620878743 0.0000120000 0.0000000000
14105183640430626 0.0000130000 0.0000000000
14105183650652498 0.0000210000 0.0000000000
14105183690303990 0.0000110000 0.0000000000
14105183700520391 0.0159029998 0.0000140000
14105183700520391 0.0000000000 0.0000000000
14105183770098635 0.0000100000 0.0000000000
14105183820960005 0.0000200000 0.0000000000
14105183870749263 0.0000210000 0.0000000000
14105183870749263 0.0000000000 0.0000000000
14105183930565727 0.0271719992 0.0000130000
14105183930565727 0.0000000000 0.0000000000
14105183920553092 0.0004210000 0.0000000000
14105184000052690 0.0166919995 0.0000140000
14105184030368304 0.0162259992 0.0000390000
14105184030368304 0.0000000000 0.0000000000
14105184020667011 0.0004100000 0.0000000000
14105184100559180 0.0003860000 0.0000000000
14105184160775530 0.0158799998 0.0000140000
14105184160775530 0.0000000000 0.0000000000
14105184150473500 0.0004020000 0.0000000000
14105184240466573 0.0184380002 0.0000170000
14105184240466573 0.0000000000 0.0000000000
14105184250985243 0.0000130000 0.0000000000
14105184290061513 0.0000100000 0.0000000000
14105184310745534 0.0265790001 0.0000140000
14105184310745534 0.0000000000 0.0000000000
14105185620226654 0.0000130000 0.0000000000
14105185640455423 0.0000140000 0.0000000000
14105185680316902 0.0000070000 0.0000000000
14105185710102056 0.0000060000 0.0000000000
14105185720253445 0.0000100000 0.0000000000
14105185740398292 0.0000150000 0.0000000000
14105185810130441 0.0000120000 0.0000000000
14105185840042583 0.0000110000 0.0000000000
14105185960632519 0.0000150000 0.0000000000
14105185970965677 0.0000260000 0.0000000000
14105186020979139 0.0000100000 0.0000000000
14105186040957494 0.0000090000 0.0000000000
14105186090369597 0.0000080000 0.0000000000
14105186280010576 0.0000090000 0.0000000000
14105186290139891 0.0000100000 0.0000000000
14105186330941666 0.0000090000 0.0000000000
14105186370389281 0.0000120000 0.0000000000
14105186480026054 0.0003960000 0.0000000000
14105186520308424 0.0003840000 0.0000000000
14105186600302151 0.0000070000 0.0000000000
14105186660787788 0.0199209992 0.0000220000
14105186660787788 0.0000000000 0.0000000000
14105186660931466 0.0005390000 0.0000000000
14105186740523351 0.0166570004 0.0000140000
14105186740523351 0.0000000000 0.0000000000
14105186740840765 0.0003760000 0.0000000000
14105186770169335 0.0005910000 0.0000000000
14105186810077271 0.0003760000 0.0000000000
14105186900186950 0.0171029996 0.0000140000
14105186900186950 0.0000000000 0.0000000000
14105186920040049 0.0000090000 0.0000000000
14105186950153264 0.0000100000 0.0000000000
14105186950888114 0.0179820005 0.0000140000
14105186950888114 0.0000000000 0.0000000000
14105187010580380 0.0160879996 0.0000140000
14105187010580380 0.0000000000 0.0000000000
14105187000569105 0.0004480000 0.0000000000
14105187090100181 0.0238569994 0.0000140000
14105187090100181 0.0000000000 0.0000000000
14105187110774171 0.0003890000 0.0000000000
14105187130898860 0.0004130000 0.0000000000
14105187180414318 0.0003980000 0.0000000000
14105187240194730 0.0000090000 0.0000000000
14105187290128910 0.0208190009 0.0000110000
14105187290853253 0.0178599991 0.0000150000
14105187290853253 0.0000000000 0.0000000000
14105187310556694 0.0000090000 0.0000000000
14105187320926205 0.0000140000 0.0000000000
14105187380470525 0.0000130000 0.0000000000
14105187410467860 0.0005320000 0.0000000000
14105187510202920 0.0000100000 0.0000000000
14105187550236959 0.0000090000 0.0000000000
14105187550975054 0.0175930001 0.0000350000
14105187550975054 0.0000000000 0.0000000000
14105187590833892 0.0186810009 0.0000140000
14105187590833892 0.0000000000 0.0000000000
14105187580849365 0.0004730000 0.0000000000
14105187690166126 0.0000090000 0.0000000000
14105187750169789 0.0212689992 0.0000130000
14105187750906063 0.0196070001 0.0000140000
14105187750906063 0.0000000000 0.0000000000
14105187910122006 0.0000090000 0.0000000000
14105187950091944 0.0000140000 0.0000000000
14105188010641143 0.0000120000 0.0000000000
14105188010641143 0.0000000000 0.0000000000
14105188040280908 0.0000140000 0.0000000000
14105188150976690 0.0203150008 0.0000140000
14105188150976690 0.0000000000 0.0000000000
14105188240165487 0.0004040000 0.0000000000
14105188400851285 0.0000100000 0.0000000000
14105189020608109 0.0000140000 0.0000000000
14105189050483189 0.0000090000 0.0000000000
14105189080069520 0.0000090000 0.0000000000
14105189260024932 0.0000060000 0.0000000000
14105189430599073 0.0000070000 0.0000000000
14105189610422272 0.0000080000 0.0000000000
14105189740605758 0.0000140000 0.0000000000
14105189980562017 0.0000090000 0.0000000000
14105190020992884 0.0000100000 0.0000000000
14105190060905846 0.0000200000 0.0000000000
14105190090334377 0.0000160000 0.0000000000
14105190170255304 0.0000120000 0.0000000000
14105190180465420 0.0000050000 0.0000000000
14105190210476201 0.0000090000 0.0000000000
14105190270404160 0.0000080000 0.0000000000
14105190310499247 0.0000090000 0.0000000000
